{
  "contractName": "ERC20Burnable",
  "abi": [
    {
      "anonymous": false,
      "inputs": [
        {
          "indexed": true,
          "internalType": "address",
          "name": "owner",
          "type": "address"
        },
        {
          "indexed": true,
          "internalType": "address",
          "name": "spender",
          "type": "address"
        },
        {
          "indexed": false,
          "internalType": "uint256",
          "name": "value",
          "type": "uint256"
        }
      ],
      "name": "Approval",
      "type": "event"
    },
    {
      "anonymous": false,
      "inputs": [
        {
          "indexed": true,
          "internalType": "address",
          "name": "from",
          "type": "address"
        },
        {
          "indexed": true,
          "internalType": "address",
          "name": "to",
          "type": "address"
        },
        {
          "indexed": false,
          "internalType": "uint256",
          "name": "value",
          "type": "uint256"
        }
      ],
      "name": "Transfer",
      "type": "event"
    },
    {
      "inputs": [
        {
          "internalType": "address",
          "name": "owner",
          "type": "address"
        },
        {
          "internalType": "address",
          "name": "spender",
          "type": "address"
        }
      ],
      "name": "allowance",
      "outputs": [
        {
          "internalType": "uint256",
          "name": "",
          "type": "uint256"
        }
      ],
      "stateMutability": "view",
      "type": "function"
    },
    {
      "inputs": [
        {
          "internalType": "address",
          "name": "spender",
          "type": "address"
        },
        {
          "internalType": "uint256",
          "name": "amount",
          "type": "uint256"
        }
      ],
      "name": "approve",
      "outputs": [
        {
          "internalType": "bool",
          "name": "",
          "type": "bool"
        }
      ],
      "stateMutability": "nonpayable",
      "type": "function"
    },
    {
      "inputs": [
        {
          "internalType": "address",
          "name": "account",
          "type": "address"
        }
      ],
      "name": "balanceOf",
      "outputs": [
        {
          "internalType": "uint256",
          "name": "",
          "type": "uint256"
        }
      ],
      "stateMutability": "view",
      "type": "function"
    },
    {
      "inputs": [],
      "name": "decimals",
      "outputs": [
        {
          "internalType": "uint8",
          "name": "",
          "type": "uint8"
        }
      ],
      "stateMutability": "view",
      "type": "function"
    },
    {
      "inputs": [
        {
          "internalType": "address",
          "name": "spender",
          "type": "address"
        },
        {
          "internalType": "uint256",
          "name": "subtractedValue",
          "type": "uint256"
        }
      ],
      "name": "decreaseAllowance",
      "outputs": [
        {
          "internalType": "bool",
          "name": "",
          "type": "bool"
        }
      ],
      "stateMutability": "nonpayable",
      "type": "function"
    },
    {
      "inputs": [
        {
          "internalType": "address",
          "name": "spender",
          "type": "address"
        },
        {
          "internalType": "uint256",
          "name": "addedValue",
          "type": "uint256"
        }
      ],
      "name": "increaseAllowance",
      "outputs": [
        {
          "internalType": "bool",
          "name": "",
          "type": "bool"
        }
      ],
      "stateMutability": "nonpayable",
      "type": "function"
    },
    {
      "inputs": [],
      "name": "name",
      "outputs": [
        {
          "internalType": "string",
          "name": "",
          "type": "string"
        }
      ],
      "stateMutability": "view",
      "type": "function"
    },
    {
      "inputs": [],
      "name": "symbol",
      "outputs": [
        {
          "internalType": "string",
          "name": "",
          "type": "string"
        }
      ],
      "stateMutability": "view",
      "type": "function"
    },
    {
      "inputs": [],
      "name": "totalSupply",
      "outputs": [
        {
          "internalType": "uint256",
          "name": "",
          "type": "uint256"
        }
      ],
      "stateMutability": "view",
      "type": "function"
    },
    {
      "inputs": [
        {
          "internalType": "address",
          "name": "recipient",
          "type": "address"
        },
        {
          "internalType": "uint256",
          "name": "amount",
          "type": "uint256"
        }
      ],
      "name": "transfer",
      "outputs": [
        {
          "internalType": "bool",
          "name": "",
          "type": "bool"
        }
      ],
      "stateMutability": "nonpayable",
      "type": "function"
    },
    {
      "inputs": [
        {
          "internalType": "address",
          "name": "sender",
          "type": "address"
        },
        {
          "internalType": "address",
          "name": "recipient",
          "type": "address"
        },
        {
          "internalType": "uint256",
          "name": "amount",
          "type": "uint256"
        }
      ],
      "name": "transferFrom",
      "outputs": [
        {
          "internalType": "bool",
          "name": "",
          "type": "bool"
        }
      ],
      "stateMutability": "nonpayable",
      "type": "function"
    },
    {
      "inputs": [
        {
          "internalType": "uint256",
          "name": "amount",
          "type": "uint256"
        }
      ],
      "name": "burn",
      "outputs": [],
      "stateMutability": "nonpayable",
      "type": "function"
    },
    {
      "inputs": [
        {
          "internalType": "address",
          "name": "account",
          "type": "address"
        },
        {
          "internalType": "uint256",
          "name": "amount",
          "type": "uint256"
        }
      ],
      "name": "burnFrom",
      "outputs": [],
      "stateMutability": "nonpayable",
      "type": "function"
    }
  ],
  "metadata": "{\"compiler\":{\"version\":\"0.8.10+commit.fc410830\"},\"language\":\"Solidity\",\"output\":{\"abi\":[{\"anonymous\":false,\"inputs\":[{\"indexed\":true,\"internalType\":\"address\",\"name\":\"owner\",\"type\":\"address\"},{\"indexed\":true,\"internalType\":\"address\",\"name\":\"spender\",\"type\":\"address\"},{\"indexed\":false,\"internalType\":\"uint256\",\"name\":\"value\",\"type\":\"uint256\"}],\"name\":\"Approval\",\"type\":\"event\"},{\"anonymous\":false,\"inputs\":[{\"indexed\":true,\"internalType\":\"address\",\"name\":\"from\",\"type\":\"address\"},{\"indexed\":true,\"internalType\":\"address\",\"name\":\"to\",\"type\":\"address\"},{\"indexed\":false,\"internalType\":\"uint256\",\"name\":\"value\",\"type\":\"uint256\"}],\"name\":\"Transfer\",\"type\":\"event\"},{\"inputs\":[{\"internalType\":\"address\",\"name\":\"owner\",\"type\":\"address\"},{\"internalType\":\"address\",\"name\":\"spender\",\"type\":\"address\"}],\"name\":\"allowance\",\"outputs\":[{\"internalType\":\"uint256\",\"name\":\"\",\"type\":\"uint256\"}],\"stateMutability\":\"view\",\"type\":\"function\"},{\"inputs\":[{\"internalType\":\"address\",\"name\":\"spender\",\"type\":\"address\"},{\"internalType\":\"uint256\",\"name\":\"amount\",\"type\":\"uint256\"}],\"name\":\"approve\",\"outputs\":[{\"internalType\":\"bool\",\"name\":\"\",\"type\":\"bool\"}],\"stateMutability\":\"nonpayable\",\"type\":\"function\"},{\"inputs\":[{\"internalType\":\"address\",\"name\":\"account\",\"type\":\"address\"}],\"name\":\"balanceOf\",\"outputs\":[{\"internalType\":\"uint256\",\"name\":\"\",\"type\":\"uint256\"}],\"stateMutability\":\"view\",\"type\":\"function\"},{\"inputs\":[{\"internalType\":\"uint256\",\"name\":\"amount\",\"type\":\"uint256\"}],\"name\":\"burn\",\"outputs\":[],\"stateMutability\":\"nonpayable\",\"type\":\"function\"},{\"inputs\":[{\"internalType\":\"address\",\"name\":\"account\",\"type\":\"address\"},{\"internalType\":\"uint256\",\"name\":\"amount\",\"type\":\"uint256\"}],\"name\":\"burnFrom\",\"outputs\":[],\"stateMutability\":\"nonpayable\",\"type\":\"function\"},{\"inputs\":[],\"name\":\"decimals\",\"outputs\":[{\"internalType\":\"uint8\",\"name\":\"\",\"type\":\"uint8\"}],\"stateMutability\":\"view\",\"type\":\"function\"},{\"inputs\":[{\"internalType\":\"address\",\"name\":\"spender\",\"type\":\"address\"},{\"internalType\":\"uint256\",\"name\":\"subtractedValue\",\"type\":\"uint256\"}],\"name\":\"decreaseAllowance\",\"outputs\":[{\"internalType\":\"bool\",\"name\":\"\",\"type\":\"bool\"}],\"stateMutability\":\"nonpayable\",\"type\":\"function\"},{\"inputs\":[{\"internalType\":\"address\",\"name\":\"spender\",\"type\":\"address\"},{\"internalType\":\"uint256\",\"name\":\"addedValue\",\"type\":\"uint256\"}],\"name\":\"increaseAllowance\",\"outputs\":[{\"internalType\":\"bool\",\"name\":\"\",\"type\":\"bool\"}],\"stateMutability\":\"nonpayable\",\"type\":\"function\"},{\"inputs\":[],\"name\":\"name\",\"outputs\":[{\"internalType\":\"string\",\"name\":\"\",\"type\":\"string\"}],\"stateMutability\":\"view\",\"type\":\"function\"},{\"inputs\":[],\"name\":\"symbol\",\"outputs\":[{\"internalType\":\"string\",\"name\":\"\",\"type\":\"string\"}],\"stateMutability\":\"view\",\"type\":\"function\"},{\"inputs\":[],\"name\":\"totalSupply\",\"outputs\":[{\"internalType\":\"uint256\",\"name\":\"\",\"type\":\"uint256\"}],\"stateMutability\":\"view\",\"type\":\"function\"},{\"inputs\":[{\"internalType\":\"address\",\"name\":\"recipient\",\"type\":\"address\"},{\"internalType\":\"uint256\",\"name\":\"amount\",\"type\":\"uint256\"}],\"name\":\"transfer\",\"outputs\":[{\"internalType\":\"bool\",\"name\":\"\",\"type\":\"bool\"}],\"stateMutability\":\"nonpayable\",\"type\":\"function\"},{\"inputs\":[{\"internalType\":\"address\",\"name\":\"sender\",\"type\":\"address\"},{\"internalType\":\"address\",\"name\":\"recipient\",\"type\":\"address\"},{\"internalType\":\"uint256\",\"name\":\"amount\",\"type\":\"uint256\"}],\"name\":\"transferFrom\",\"outputs\":[{\"internalType\":\"bool\",\"name\":\"\",\"type\":\"bool\"}],\"stateMutability\":\"nonpayable\",\"type\":\"function\"}],\"devdoc\":{\"details\":\"Extension of {ERC20} that allows token holders to destroy both their own tokens and those that they have an allowance for, in a way that can be recognized off-chain (via event analysis).\",\"kind\":\"dev\",\"methods\":{\"allowance(address,address)\":{\"details\":\"See {IERC20-allowance}.\"},\"approve(address,uint256)\":{\"details\":\"See {IERC20-approve}. Requirements: - `spender` cannot be the zero address.\"},\"balanceOf(address)\":{\"details\":\"See {IERC20-balanceOf}.\"},\"burn(uint256)\":{\"details\":\"Destroys `amount` tokens from the caller. See {ERC20-_burn}.\"},\"burnFrom(address,uint256)\":{\"details\":\"Destroys `amount` tokens from `account`, deducting from the caller's allowance. See {ERC20-_burn} and {ERC20-allowance}. Requirements: - the caller must have allowance for ``accounts``'s tokens of at least `amount`.\"},\"decimals()\":{\"details\":\"Returns the number of decimals used to get its user representation. For example, if `decimals` equals `2`, a balance of `505` tokens should be displayed to a user as `5.05` (`505 / 10 ** 2`). Tokens usually opt for a value of 18, imitating the relationship between Ether and Wei. This is the value {ERC20} uses, unless this function is overridden; NOTE: This information is only used for _display_ purposes: it in no way affects any of the arithmetic of the contract, including {IERC20-balanceOf} and {IERC20-transfer}.\"},\"decreaseAllowance(address,uint256)\":{\"details\":\"Atomically decreases the allowance granted to `spender` by the caller. This is an alternative to {approve} that can be used as a mitigation for problems described in {IERC20-approve}. Emits an {Approval} event indicating the updated allowance. Requirements: - `spender` cannot be the zero address. - `spender` must have allowance for the caller of at least `subtractedValue`.\"},\"increaseAllowance(address,uint256)\":{\"details\":\"Atomically increases the allowance granted to `spender` by the caller. This is an alternative to {approve} that can be used as a mitigation for problems described in {IERC20-approve}. Emits an {Approval} event indicating the updated allowance. Requirements: - `spender` cannot be the zero address.\"},\"name()\":{\"details\":\"Returns the name of the token.\"},\"symbol()\":{\"details\":\"Returns the symbol of the token, usually a shorter version of the name.\"},\"totalSupply()\":{\"details\":\"See {IERC20-totalSupply}.\"},\"transfer(address,uint256)\":{\"details\":\"See {IERC20-transfer}. Requirements: - `recipient` cannot be the zero address. - the caller must have a balance of at least `amount`.\"},\"transferFrom(address,address,uint256)\":{\"details\":\"See {IERC20-transferFrom}. Emits an {Approval} event indicating the updated allowance. This is not required by the EIP. See the note at the beginning of {ERC20}. Requirements: - `sender` and `recipient` cannot be the zero address. - `sender` must have a balance of at least `amount`. - the caller must have allowance for ``sender``'s tokens of at least `amount`.\"}},\"version\":1},\"userdoc\":{\"kind\":\"user\",\"methods\":{},\"version\":1}},\"settings\":{\"compilationTarget\":{\"@openzeppelin/contracts/token/ERC20/extensions/ERC20Burnable.sol\":\"ERC20Burnable\"},\"evmVersion\":\"petersburg\",\"libraries\":{},\"metadata\":{\"bytecodeHash\":\"ipfs\"},\"optimizer\":{\"enabled\":false,\"runs\":200},\"remappings\":[]},\"sources\":{\"@openzeppelin/contracts/token/ERC20/ERC20.sol\":{\"keccak256\":\"0xb03df8481a954604ad0c9125680893b2e3f7ff770fe470e38b89ac61b84e8072\",\"license\":\"MIT\",\"urls\":[\"bzz-raw://b34655953d18ba3a45b762fb6bdbb6549af69a27435e10ece178742bf70baf45\",\"dweb:/ipfs/QmcqjUoFLLMyx7dbwSHUnDBH6aphkVHXWQvQRRev5EAWEh\"]},\"@openzeppelin/contracts/token/ERC20/IERC20.sol\":{\"keccak256\":\"0x027b891937d20ccf213fdb9c31531574256de774bda99d3a70ecef6e1913ed2a\",\"license\":\"MIT\",\"urls\":[\"bzz-raw://087318b21c528119f649899f5b5580566dd8d7b0303d4904bd0e8580c3545f14\",\"dweb:/ipfs/Qmbn5Mj7aUn8hJuQ8VrQjjEXRsXyJKykgnjR9p4C3nfLtL\"]},\"@openzeppelin/contracts/token/ERC20/extensions/ERC20Burnable.sol\":{\"keccak256\":\"0xf98cb1651a90d20ef77d8c1dd10d5fce4954e747603e5672a8292bd4368120dd\",\"license\":\"MIT\",\"urls\":[\"bzz-raw://76b539a8edd558b010d1ff3e462c5d4edd039b790b91f31a5bce18957655cc9f\",\"dweb:/ipfs/QmSdJehhx1SwCWLSFFgHQTmUY2YwDTBQjTVjkmhXhA1srb\"]},\"@openzeppelin/contracts/token/ERC20/extensions/IERC20Metadata.sol\":{\"keccak256\":\"0x83fe24f5c04a56091e50f4a345ff504c8bff658a76d4c43b16878c8f940c53b2\",\"license\":\"MIT\",\"urls\":[\"bzz-raw://d4c3df1a7ca104b633a7d81c6c6f5192367d150cd5a32cba81f7f27012729013\",\"dweb:/ipfs/QmSim72e3ZVsfgZt8UceCvbiSuMRHR6WDsiamqNzZahGSY\"]},\"@openzeppelin/contracts/utils/Context.sol\":{\"keccak256\":\"0x90565a39ae45c80f0468dc96c7b20d0afc3055f344c8203a0c9258239f350b9f\",\"license\":\"MIT\",\"urls\":[\"bzz-raw://26e8b38a7ac8e7b4463af00cf7fff1bf48ae9875765bf4f7751e100124d0bc8c\",\"dweb:/ipfs/QmWcsmkVr24xmmjfnBQZoemFniXjj3vwT78Cz6uqZW1Hux\"]}},\"version\":1}",
  "bytecode": "0x",
  "deployedBytecode": "0x",
  "immutableReferences": {},
  "generatedSources": [],
  "deployedGeneratedSources": [],
  "sourceMap": "",
  "deployedSourceMap": "",
  "source": "// SPDX-License-Identifier: MIT\n\npragma solidity ^0.8.0;\n\nimport \"../ERC20.sol\";\nimport \"../../../utils/Context.sol\";\n\n/**\n * @dev Extension of {ERC20} that allows token holders to destroy both their own\n * tokens and those that they have an allowance for, in a way that can be\n * recognized off-chain (via event analysis).\n */\nabstract contract ERC20Burnable is Context, ERC20 {\n    /**\n     * @dev Destroys `amount` tokens from the caller.\n     *\n     * See {ERC20-_burn}.\n     */\n    function burn(uint256 amount) public virtual {\n        _burn(_msgSender(), amount);\n    }\n\n    /**\n     * @dev Destroys `amount` tokens from `account`, deducting from the caller's\n     * allowance.\n     *\n     * See {ERC20-_burn} and {ERC20-allowance}.\n     *\n     * Requirements:\n     *\n     * - the caller must have allowance for ``accounts``'s tokens of at least\n     * `amount`.\n     */\n    function burnFrom(address account, uint256 amount) public virtual {\n        uint256 currentAllowance = allowance(account, _msgSender());\n        require(currentAllowance >= amount, \"ERC20: burn amount exceeds allowance\");\n        unchecked {\n            _approve(account, _msgSender(), currentAllowance - amount);\n        }\n        _burn(account, amount);\n    }\n}\n",
  "sourcePath": "@openzeppelin\\contracts\\token\\ERC20\\extensions\\ERC20Burnable.sol",
  "ast": {
    "absolutePath": "@openzeppelin/contracts/token/ERC20/extensions/ERC20Burnable.sol",
    "exportedSymbols": {
      "Context": [
        1357
      ],
      "ERC20": [
        649
      ],
      "ERC20Burnable": [
        789
      ],
      "IERC20": [
        727
      ],
      "IERC20Metadata": [
        814
      ]
    },
    "id": 790,
    "license": "MIT",
    "nodeType": "SourceUnit",
    "nodes": [
      {
        "id": 729,
        "literals": [
          "solidity",
          "^",
          "0.8",
          ".0"
        ],
        "nodeType": "PragmaDirective",
        "src": "33:23:3"
      },
      {
        "absolutePath": "@openzeppelin/contracts/token/ERC20/ERC20.sol",
        "file": "../ERC20.sol",
        "id": 730,
        "nameLocation": "-1:-1:-1",
        "nodeType": "ImportDirective",
        "scope": 790,
        "sourceUnit": 650,
        "src": "58:22:3",
        "symbolAliases": [],
        "unitAlias": ""
      },
      {
        "absolutePath": "@openzeppelin/contracts/utils/Context.sol",
        "file": "../../../utils/Context.sol",
        "id": 731,
        "nameLocation": "-1:-1:-1",
        "nodeType": "ImportDirective",
        "scope": 790,
        "sourceUnit": 1358,
        "src": "81:36:3",
        "symbolAliases": [],
        "unitAlias": ""
      },
      {
        "abstract": true,
        "baseContracts": [
          {
            "baseName": {
              "id": 733,
              "name": "Context",
              "nodeType": "IdentifierPath",
              "referencedDeclaration": 1357,
              "src": "363:7:3"
            },
            "id": 734,
            "nodeType": "InheritanceSpecifier",
            "src": "363:7:3"
          },
          {
            "baseName": {
              "id": 735,
              "name": "ERC20",
              "nodeType": "IdentifierPath",
              "referencedDeclaration": 649,
              "src": "372:5:3"
            },
            "id": 736,
            "nodeType": "InheritanceSpecifier",
            "src": "372:5:3"
          }
        ],
        "canonicalName": "ERC20Burnable",
        "contractDependencies": [],
        "contractKind": "contract",
        "documentation": {
          "id": 732,
          "nodeType": "StructuredDocumentation",
          "src": "119:208:3",
          "text": " @dev Extension of {ERC20} that allows token holders to destroy both their own\n tokens and those that they have an allowance for, in a way that can be\n recognized off-chain (via event analysis)."
        },
        "fullyImplemented": false,
        "id": 789,
        "linearizedBaseContracts": [
          789,
          649,
          814,
          727,
          1357
        ],
        "name": "ERC20Burnable",
        "nameLocation": "346:13:3",
        "nodeType": "ContractDefinition",
        "nodes": [
          {
            "body": {
              "id": 748,
              "nodeType": "Block",
              "src": "532:44:3",
              "statements": [
                {
                  "expression": {
                    "arguments": [
                      {
                        "arguments": [],
                        "expression": {
                          "argumentTypes": [],
                          "id": 743,
                          "name": "_msgSender",
                          "nodeType": "Identifier",
                          "overloadedDeclarations": [],
                          "referencedDeclaration": 1347,
                          "src": "548:10:3",
                          "typeDescriptions": {
                            "typeIdentifier": "t_function_internal_view$__$returns$_t_address_$",
                            "typeString": "function () view returns (address)"
                          }
                        },
                        "id": 744,
                        "isConstant": false,
                        "isLValue": false,
                        "isPure": false,
                        "kind": "functionCall",
                        "lValueRequested": false,
                        "names": [],
                        "nodeType": "FunctionCall",
                        "src": "548:12:3",
                        "tryCall": false,
                        "typeDescriptions": {
                          "typeIdentifier": "t_address",
                          "typeString": "address"
                        }
                      },
                      {
                        "id": 745,
                        "name": "amount",
                        "nodeType": "Identifier",
                        "overloadedDeclarations": [],
                        "referencedDeclaration": 739,
                        "src": "562:6:3",
                        "typeDescriptions": {
                          "typeIdentifier": "t_uint256",
                          "typeString": "uint256"
                        }
                      }
                    ],
                    "expression": {
                      "argumentTypes": [
                        {
                          "typeIdentifier": "t_address",
                          "typeString": "address"
                        },
                        {
                          "typeIdentifier": "t_uint256",
                          "typeString": "uint256"
                        }
                      ],
                      "id": 742,
                      "name": "_burn",
                      "nodeType": "Identifier",
                      "overloadedDeclarations": [],
                      "referencedDeclaration": 581,
                      "src": "542:5:3",
                      "typeDescriptions": {
                        "typeIdentifier": "t_function_internal_nonpayable$_t_address_$_t_uint256_$returns$__$",
                        "typeString": "function (address,uint256)"
                      }
                    },
                    "id": 746,
                    "isConstant": false,
                    "isLValue": false,
                    "isPure": false,
                    "kind": "functionCall",
                    "lValueRequested": false,
                    "names": [],
                    "nodeType": "FunctionCall",
                    "src": "542:27:3",
                    "tryCall": false,
                    "typeDescriptions": {
                      "typeIdentifier": "t_tuple$__$",
                      "typeString": "tuple()"
                    }
                  },
                  "id": 747,
                  "nodeType": "ExpressionStatement",
                  "src": "542:27:3"
                }
              ]
            },
            "documentation": {
              "id": 737,
              "nodeType": "StructuredDocumentation",
              "src": "384:98:3",
              "text": " @dev Destroys `amount` tokens from the caller.\n See {ERC20-_burn}."
            },
            "functionSelector": "42966c68",
            "id": 749,
            "implemented": true,
            "kind": "function",
            "modifiers": [],
            "name": "burn",
            "nameLocation": "496:4:3",
            "nodeType": "FunctionDefinition",
            "parameters": {
              "id": 740,
              "nodeType": "ParameterList",
              "parameters": [
                {
                  "constant": false,
                  "id": 739,
                  "mutability": "mutable",
                  "name": "amount",
                  "nameLocation": "509:6:3",
                  "nodeType": "VariableDeclaration",
                  "scope": 749,
                  "src": "501:14:3",
                  "stateVariable": false,
                  "storageLocation": "default",
                  "typeDescriptions": {
                    "typeIdentifier": "t_uint256",
                    "typeString": "uint256"
                  },
                  "typeName": {
                    "id": 738,
                    "name": "uint256",
                    "nodeType": "ElementaryTypeName",
                    "src": "501:7:3",
                    "typeDescriptions": {
                      "typeIdentifier": "t_uint256",
                      "typeString": "uint256"
                    }
                  },
                  "visibility": "internal"
                }
              ],
              "src": "500:16:3"
            },
            "returnParameters": {
              "id": 741,
              "nodeType": "ParameterList",
              "parameters": [],
              "src": "532:0:3"
            },
            "scope": 789,
            "src": "487:89:3",
            "stateMutability": "nonpayable",
            "virtual": true,
            "visibility": "public"
          },
          {
            "body": {
              "id": 787,
              "nodeType": "Block",
              "src": "948:295:3",
              "statements": [
                {
                  "assignments": [
                    758
                  ],
                  "declarations": [
                    {
                      "constant": false,
                      "id": 758,
                      "mutability": "mutable",
                      "name": "currentAllowance",
                      "nameLocation": "966:16:3",
                      "nodeType": "VariableDeclaration",
                      "scope": 787,
                      "src": "958:24:3",
                      "stateVariable": false,
                      "storageLocation": "default",
                      "typeDescriptions": {
                        "typeIdentifier": "t_uint256",
                        "typeString": "uint256"
                      },
                      "typeName": {
                        "id": 757,
                        "name": "uint256",
                        "nodeType": "ElementaryTypeName",
                        "src": "958:7:3",
                        "typeDescriptions": {
                          "typeIdentifier": "t_uint256",
                          "typeString": "uint256"
                        }
                      },
                      "visibility": "internal"
                    }
                  ],
                  "id": 764,
                  "initialValue": {
                    "arguments": [
                      {
                        "id": 760,
                        "name": "account",
                        "nodeType": "Identifier",
                        "overloadedDeclarations": [],
                        "referencedDeclaration": 752,
                        "src": "995:7:3",
                        "typeDescriptions": {
                          "typeIdentifier": "t_address",
                          "typeString": "address"
                        }
                      },
                      {
                        "arguments": [],
                        "expression": {
                          "argumentTypes": [],
                          "id": 761,
                          "name": "_msgSender",
                          "nodeType": "Identifier",
                          "overloadedDeclarations": [],
                          "referencedDeclaration": 1347,
                          "src": "1004:10:3",
                          "typeDescriptions": {
                            "typeIdentifier": "t_function_internal_view$__$returns$_t_address_$",
                            "typeString": "function () view returns (address)"
                          }
                        },
                        "id": 762,
                        "isConstant": false,
                        "isLValue": false,
                        "isPure": false,
                        "kind": "functionCall",
                        "lValueRequested": false,
                        "names": [],
                        "nodeType": "FunctionCall",
                        "src": "1004:12:3",
                        "tryCall": false,
                        "typeDescriptions": {
                          "typeIdentifier": "t_address",
                          "typeString": "address"
                        }
                      }
                    ],
                    "expression": {
                      "argumentTypes": [
                        {
                          "typeIdentifier": "t_address",
                          "typeString": "address"
                        },
                        {
                          "typeIdentifier": "t_address",
                          "typeString": "address"
                        }
                      ],
                      "id": 759,
                      "name": "allowance",
                      "nodeType": "Identifier",
                      "overloadedDeclarations": [],
                      "referencedDeclaration": 241,
                      "src": "985:9:3",
                      "typeDescriptions": {
                        "typeIdentifier": "t_function_internal_view$_t_address_$_t_address_$returns$_t_uint256_$",
                        "typeString": "function (address,address) view returns (uint256)"
                      }
                    },
                    "id": 763,
                    "isConstant": false,
                    "isLValue": false,
                    "isPure": false,
                    "kind": "functionCall",
                    "lValueRequested": false,
                    "names": [],
                    "nodeType": "FunctionCall",
                    "src": "985:32:3",
                    "tryCall": false,
                    "typeDescriptions": {
                      "typeIdentifier": "t_uint256",
                      "typeString": "uint256"
                    }
                  },
                  "nodeType": "VariableDeclarationStatement",
                  "src": "958:59:3"
                },
                {
                  "expression": {
                    "arguments": [
                      {
                        "commonType": {
                          "typeIdentifier": "t_uint256",
                          "typeString": "uint256"
                        },
                        "id": 768,
                        "isConstant": false,
                        "isLValue": false,
                        "isPure": false,
                        "lValueRequested": false,
                        "leftExpression": {
                          "id": 766,
                          "name": "currentAllowance",
                          "nodeType": "Identifier",
                          "overloadedDeclarations": [],
                          "referencedDeclaration": 758,
                          "src": "1035:16:3",
                          "typeDescriptions": {
                            "typeIdentifier": "t_uint256",
                            "typeString": "uint256"
                          }
                        },
                        "nodeType": "BinaryOperation",
                        "operator": ">=",
                        "rightExpression": {
                          "id": 767,
                          "name": "amount",
                          "nodeType": "Identifier",
                          "overloadedDeclarations": [],
                          "referencedDeclaration": 754,
                          "src": "1055:6:3",
                          "typeDescriptions": {
                            "typeIdentifier": "t_uint256",
                            "typeString": "uint256"
                          }
                        },
                        "src": "1035:26:3",
                        "typeDescriptions": {
                          "typeIdentifier": "t_bool",
                          "typeString": "bool"
                        }
                      },
                      {
                        "hexValue": "45524332303a206275726e20616d6f756e74206578636565647320616c6c6f77616e6365",
                        "id": 769,
                        "isConstant": false,
                        "isLValue": false,
                        "isPure": true,
                        "kind": "string",
                        "lValueRequested": false,
                        "nodeType": "Literal",
                        "src": "1063:38:3",
                        "typeDescriptions": {
                          "typeIdentifier": "t_stringliteral_a287c363786607a1457a2d9d12fa61c0073358e02d76b4035fc2c2d86a19c0db",
                          "typeString": "literal_string \"ERC20: burn amount exceeds allowance\""
                        },
                        "value": "ERC20: burn amount exceeds allowance"
                      }
                    ],
                    "expression": {
                      "argumentTypes": [
                        {
                          "typeIdentifier": "t_bool",
                          "typeString": "bool"
                        },
                        {
                          "typeIdentifier": "t_stringliteral_a287c363786607a1457a2d9d12fa61c0073358e02d76b4035fc2c2d86a19c0db",
                          "typeString": "literal_string \"ERC20: burn amount exceeds allowance\""
                        }
                      ],
                      "id": 765,
                      "name": "require",
                      "nodeType": "Identifier",
                      "overloadedDeclarations": [
                        4294967278,
                        4294967278
                      ],
                      "referencedDeclaration": 4294967278,
                      "src": "1027:7:3",
                      "typeDescriptions": {
                        "typeIdentifier": "t_function_require_pure$_t_bool_$_t_string_memory_ptr_$returns$__$",
                        "typeString": "function (bool,string memory) pure"
                      }
                    },
                    "id": 770,
                    "isConstant": false,
                    "isLValue": false,
                    "isPure": false,
                    "kind": "functionCall",
                    "lValueRequested": false,
                    "names": [],
                    "nodeType": "FunctionCall",
                    "src": "1027:75:3",
                    "tryCall": false,
                    "typeDescriptions": {
                      "typeIdentifier": "t_tuple$__$",
                      "typeString": "tuple()"
                    }
                  },
                  "id": 771,
                  "nodeType": "ExpressionStatement",
                  "src": "1027:75:3"
                },
                {
                  "id": 781,
                  "nodeType": "UncheckedBlock",
                  "src": "1112:93:3",
                  "statements": [
                    {
                      "expression": {
                        "arguments": [
                          {
                            "id": 773,
                            "name": "account",
                            "nodeType": "Identifier",
                            "overloadedDeclarations": [],
                            "referencedDeclaration": 752,
                            "src": "1145:7:3",
                            "typeDescriptions": {
                              "typeIdentifier": "t_address",
                              "typeString": "address"
                            }
                          },
                          {
                            "arguments": [],
                            "expression": {
                              "argumentTypes": [],
                              "id": 774,
                              "name": "_msgSender",
                              "nodeType": "Identifier",
                              "overloadedDeclarations": [],
                              "referencedDeclaration": 1347,
                              "src": "1154:10:3",
                              "typeDescriptions": {
                                "typeIdentifier": "t_function_internal_view$__$returns$_t_address_$",
                                "typeString": "function () view returns (address)"
                              }
                            },
                            "id": 775,
                            "isConstant": false,
                            "isLValue": false,
                            "isPure": false,
                            "kind": "functionCall",
                            "lValueRequested": false,
                            "names": [],
                            "nodeType": "FunctionCall",
                            "src": "1154:12:3",
                            "tryCall": false,
                            "typeDescriptions": {
                              "typeIdentifier": "t_address",
                              "typeString": "address"
                            }
                          },
                          {
                            "commonType": {
                              "typeIdentifier": "t_uint256",
                              "typeString": "uint256"
                            },
                            "id": 778,
                            "isConstant": false,
                            "isLValue": false,
                            "isPure": false,
                            "lValueRequested": false,
                            "leftExpression": {
                              "id": 776,
                              "name": "currentAllowance",
                              "nodeType": "Identifier",
                              "overloadedDeclarations": [],
                              "referencedDeclaration": 758,
                              "src": "1168:16:3",
                              "typeDescriptions": {
                                "typeIdentifier": "t_uint256",
                                "typeString": "uint256"
                              }
                            },
                            "nodeType": "BinaryOperation",
                            "operator": "-",
                            "rightExpression": {
                              "id": 777,
                              "name": "amount",
                              "nodeType": "Identifier",
                              "overloadedDeclarations": [],
                              "referencedDeclaration": 754,
                              "src": "1187:6:3",
                              "typeDescriptions": {
                                "typeIdentifier": "t_uint256",
                                "typeString": "uint256"
                              }
                            },
                            "src": "1168:25:3",
                            "typeDescriptions": {
                              "typeIdentifier": "t_uint256",
                              "typeString": "uint256"
                            }
                          }
                        ],
                        "expression": {
                          "argumentTypes": [
                            {
                              "typeIdentifier": "t_address",
                              "typeString": "address"
                            },
                            {
                              "typeIdentifier": "t_address",
                              "typeString": "address"
                            },
                            {
                              "typeIdentifier": "t_uint256",
                              "typeString": "uint256"
                            }
                          ],
                          "id": 772,
                          "name": "_approve",
                          "nodeType": "Identifier",
                          "overloadedDeclarations": [],
                          "referencedDeclaration": 626,
                          "src": "1136:8:3",
                          "typeDescriptions": {
                            "typeIdentifier": "t_function_internal_nonpayable$_t_address_$_t_address_$_t_uint256_$returns$__$",
                            "typeString": "function (address,address,uint256)"
                          }
                        },
                        "id": 779,
                        "isConstant": false,
                        "isLValue": false,
                        "isPure": false,
                        "kind": "functionCall",
                        "lValueRequested": false,
                        "names": [],
                        "nodeType": "FunctionCall",
                        "src": "1136:58:3",
                        "tryCall": false,
                        "typeDescriptions": {
                          "typeIdentifier": "t_tuple$__$",
                          "typeString": "tuple()"
                        }
                      },
                      "id": 780,
                      "nodeType": "ExpressionStatement",
                      "src": "1136:58:3"
                    }
                  ]
                },
                {
                  "expression": {
                    "arguments": [
                      {
                        "id": 783,
                        "name": "account",
                        "nodeType": "Identifier",
                        "overloadedDeclarations": [],
                        "referencedDeclaration": 752,
                        "src": "1220:7:3",
                        "typeDescriptions": {
                          "typeIdentifier": "t_address",
                          "typeString": "address"
                        }
                      },
                      {
                        "id": 784,
                        "name": "amount",
                        "nodeType": "Identifier",
                        "overloadedDeclarations": [],
                        "referencedDeclaration": 754,
                        "src": "1229:6:3",
                        "typeDescriptions": {
                          "typeIdentifier": "t_uint256",
                          "typeString": "uint256"
                        }
                      }
                    ],
                    "expression": {
                      "argumentTypes": [
                        {
                          "typeIdentifier": "t_address",
                          "typeString": "address"
                        },
                        {
                          "typeIdentifier": "t_uint256",
                          "typeString": "uint256"
                        }
                      ],
                      "id": 782,
                      "name": "_burn",
                      "nodeType": "Identifier",
                      "overloadedDeclarations": [],
                      "referencedDeclaration": 581,
                      "src": "1214:5:3",
                      "typeDescriptions": {
                        "typeIdentifier": "t_function_internal_nonpayable$_t_address_$_t_uint256_$returns$__$",
                        "typeString": "function (address,uint256)"
                      }
                    },
                    "id": 785,
                    "isConstant": false,
                    "isLValue": false,
                    "isPure": false,
                    "kind": "functionCall",
                    "lValueRequested": false,
                    "names": [],
                    "nodeType": "FunctionCall",
                    "src": "1214:22:3",
                    "tryCall": false,
                    "typeDescriptions": {
                      "typeIdentifier": "t_tuple$__$",
                      "typeString": "tuple()"
                    }
                  },
                  "id": 786,
                  "nodeType": "ExpressionStatement",
                  "src": "1214:22:3"
                }
              ]
            },
            "documentation": {
              "id": 750,
              "nodeType": "StructuredDocumentation",
              "src": "582:295:3",
              "text": " @dev Destroys `amount` tokens from `account`, deducting from the caller's\n allowance.\n See {ERC20-_burn} and {ERC20-allowance}.\n Requirements:\n - the caller must have allowance for ``accounts``'s tokens of at least\n `amount`."
            },
            "functionSelector": "79cc6790",
            "id": 788,
            "implemented": true,
            "kind": "function",
            "modifiers": [],
            "name": "burnFrom",
            "nameLocation": "891:8:3",
            "nodeType": "FunctionDefinition",
            "parameters": {
              "id": 755,
              "nodeType": "ParameterList",
              "parameters": [
                {
                  "constant": false,
                  "id": 752,
                  "mutability": "mutable",
                  "name": "account",
                  "nameLocation": "908:7:3",
                  "nodeType": "VariableDeclaration",
                  "scope": 788,
                  "src": "900:15:3",
                  "stateVariable": false,
                  "storageLocation": "default",
                  "typeDescriptions": {
                    "typeIdentifier": "t_address",
                    "typeString": "address"
                  },
                  "typeName": {
                    "id": 751,
                    "name": "address",
                    "nodeType": "ElementaryTypeName",
                    "src": "900:7:3",
                    "stateMutability": "nonpayable",
                    "typeDescriptions": {
                      "typeIdentifier": "t_address",
                      "typeString": "address"
                    }
                  },
                  "visibility": "internal"
                },
                {
                  "constant": false,
                  "id": 754,
                  "mutability": "mutable",
                  "name": "amount",
                  "nameLocation": "925:6:3",
                  "nodeType": "VariableDeclaration",
                  "scope": 788,
                  "src": "917:14:3",
                  "stateVariable": false,
                  "storageLocation": "default",
                  "typeDescriptions": {
                    "typeIdentifier": "t_uint256",
                    "typeString": "uint256"
                  },
                  "typeName": {
                    "id": 753,
                    "name": "uint256",
                    "nodeType": "ElementaryTypeName",
                    "src": "917:7:3",
                    "typeDescriptions": {
                      "typeIdentifier": "t_uint256",
                      "typeString": "uint256"
                    }
                  },
                  "visibility": "internal"
                }
              ],
              "src": "899:33:3"
            },
            "returnParameters": {
              "id": 756,
              "nodeType": "ParameterList",
              "parameters": [],
              "src": "948:0:3"
            },
            "scope": 789,
            "src": "882:361:3",
            "stateMutability": "nonpayable",
            "virtual": true,
            "visibility": "public"
          }
        ],
        "scope": 790,
        "src": "328:917:3",
        "usedErrors": []
      }
    ],
    "src": "33:1213:3"
  },
  "legacyAST": {
    "absolutePath": "@openzeppelin/contracts/token/ERC20/extensions/ERC20Burnable.sol",
    "exportedSymbols": {
      "Context": [
        1357
      ],
      "ERC20": [
        649
      ],
      "ERC20Burnable": [
        789
      ],
      "IERC20": [
        727
      ],
      "IERC20Metadata": [
        814
      ]
    },
    "id": 790,
    "license": "MIT",
    "nodeType": "SourceUnit",
    "nodes": [
      {
        "id": 729,
        "literals": [
          "solidity",
          "^",
          "0.8",
          ".0"
        ],
        "nodeType": "PragmaDirective",
        "src": "33:23:3"
      },
      {
        "absolutePath": "@openzeppelin/contracts/token/ERC20/ERC20.sol",
        "file": "../ERC20.sol",
        "id": 730,
        "nameLocation": "-1:-1:-1",
        "nodeType": "ImportDirective",
        "scope": 790,
        "sourceUnit": 650,
        "src": "58:22:3",
        "symbolAliases": [],
        "unitAlias": ""
      },
      {
        "absolutePath": "@openzeppelin/contracts/utils/Context.sol",
        "file": "../../../utils/Context.sol",
        "id": 731,
        "nameLocation": "-1:-1:-1",
        "nodeType": "ImportDirective",
        "scope": 790,
        "sourceUnit": 1358,
        "src": "81:36:3",
        "symbolAliases": [],
        "unitAlias": ""
      },
      {
        "abstract": true,
        "baseContracts": [
          {
            "baseName": {
              "id": 733,
              "name": "Context",
              "nodeType": "IdentifierPath",
              "referencedDeclaration": 1357,
              "src": "363:7:3"
            },
            "id": 734,
            "nodeType": "InheritanceSpecifier",
            "src": "363:7:3"
          },
          {
            "baseName": {
              "id": 735,
              "name": "ERC20",
              "nodeType": "IdentifierPath",
              "referencedDeclaration": 649,
              "src": "372:5:3"
            },
            "id": 736,
            "nodeType": "InheritanceSpecifier",
            "src": "372:5:3"
          }
        ],
        "canonicalName": "ERC20Burnable",
        "contractDependencies": [],
        "contractKind": "contract",
        "documentation": {
          "id": 732,
          "nodeType": "StructuredDocumentation",
          "src": "119:208:3",
          "text": " @dev Extension of {ERC20} that allows token holders to destroy both their own\n tokens and those that they have an allowance for, in a way that can be\n recognized off-chain (via event analysis)."
        },
        "fullyImplemented": false,
        "id": 789,
        "linearizedBaseContracts": [
          789,
          649,
          814,
          727,
          1357
        ],
        "name": "ERC20Burnable",
        "nameLocation": "346:13:3",
        "nodeType": "ContractDefinition",
        "nodes": [
          {
            "body": {
              "id": 748,
              "nodeType": "Block",
              "src": "532:44:3",
              "statements": [
                {
                  "expression": {
                    "arguments": [
                      {
                        "arguments": [],
                        "expression": {
                          "argumentTypes": [],
                          "id": 743,
                          "name": "_msgSender",
                          "nodeType": "Identifier",
                          "overloadedDeclarations": [],
                          "referencedDeclaration": 1347,
                          "src": "548:10:3",
                          "typeDescriptions": {
                            "typeIdentifier": "t_function_internal_view$__$returns$_t_address_$",
                            "typeString": "function () view returns (address)"
                          }
                        },
                        "id": 744,
                        "isConstant": false,
                        "isLValue": false,
                        "isPure": false,
                        "kind": "functionCall",
                        "lValueRequested": false,
                        "names": [],
                        "nodeType": "FunctionCall",
                        "src": "548:12:3",
                        "tryCall": false,
                        "typeDescriptions": {
                          "typeIdentifier": "t_address",
                          "typeString": "address"
                        }
                      },
                      {
                        "id": 745,
                        "name": "amount",
                        "nodeType": "Identifier",
                        "overloadedDeclarations": [],
                        "referencedDeclaration": 739,
                        "src": "562:6:3",
                        "typeDescriptions": {
                          "typeIdentifier": "t_uint256",
                          "typeString": "uint256"
                        }
                      }
                    ],
                    "expression": {
                      "argumentTypes": [
                        {
                          "typeIdentifier": "t_address",
                          "typeString": "address"
                        },
                        {
                          "typeIdentifier": "t_uint256",
                          "typeString": "uint256"
                        }
                      ],
                      "id": 742,
                      "name": "_burn",
                      "nodeType": "Identifier",
                      "overloadedDeclarations": [],
                      "referencedDeclaration": 581,
                      "src": "542:5:3",
                      "typeDescriptions": {
                        "typeIdentifier": "t_function_internal_nonpayable$_t_address_$_t_uint256_$returns$__$",
                        "typeString": "function (address,uint256)"
                      }
                    },
                    "id": 746,
                    "isConstant": false,
                    "isLValue": false,
                    "isPure": false,
                    "kind": "functionCall",
                    "lValueRequested": false,
                    "names": [],
                    "nodeType": "FunctionCall",
                    "src": "542:27:3",
                    "tryCall": false,
                    "typeDescriptions": {
                      "typeIdentifier": "t_tuple$__$",
                      "typeString": "tuple()"
                    }
                  },
                  "id": 747,
                  "nodeType": "ExpressionStatement",
                  "src": "542:27:3"
                }
              ]
            },
            "documentation": {
              "id": 737,
              "nodeType": "StructuredDocumentation",
              "src": "384:98:3",
              "text": " @dev Destroys `amount` tokens from the caller.\n See {ERC20-_burn}."
            },
            "functionSelector": "42966c68",
            "id": 749,
            "implemented": true,
            "kind": "function",
            "modifiers": [],
            "name": "burn",
            "nameLocation": "496:4:3",
            "nodeType": "FunctionDefinition",
            "parameters": {
              "id": 740,
              "nodeType": "ParameterList",
              "parameters": [
                {
                  "constant": false,
                  "id": 739,
                  "mutability": "mutable",
                  "name": "amount",
                  "nameLocation": "509:6:3",
                  "nodeType": "VariableDeclaration",
                  "scope": 749,
                  "src": "501:14:3",
                  "stateVariable": false,
                  "storageLocation": "default",
                  "typeDescriptions": {
                    "typeIdentifier": "t_uint256",
                    "typeString": "uint256"
                  },
                  "typeName": {
                    "id": 738,
                    "name": "uint256",
                    "nodeType": "ElementaryTypeName",
                    "src": "501:7:3",
                    "typeDescriptions": {
                      "typeIdentifier": "t_uint256",
                      "typeString": "uint256"
                    }
                  },
                  "visibility": "internal"
                }
              ],
              "src": "500:16:3"
            },
            "returnParameters": {
              "id": 741,
              "nodeType": "ParameterList",
              "parameters": [],
              "src": "532:0:3"
            },
            "scope": 789,
            "src": "487:89:3",
            "stateMutability": "nonpayable",
            "virtual": true,
            "visibility": "public"
          },
          {
            "body": {
              "id": 787,
              "nodeType": "Block",
              "src": "948:295:3",
              "statements": [
                {
                  "assignments": [
                    758
                  ],
                  "declarations": [
                    {
                      "constant": false,
                      "id": 758,
                      "mutability": "mutable",
                      "name": "currentAllowance",
                      "nameLocation": "966:16:3",
                      "nodeType": "VariableDeclaration",
                      "scope": 787,
                      "src": "958:24:3",
                      "stateVariable": false,
                      "storageLocation": "default",
                      "typeDescriptions": {
                        "typeIdentifier": "t_uint256",
                        "typeString": "uint256"
                      },
                      "typeName": {
                        "id": 757,
                        "name": "uint256",
                        "nodeType": "ElementaryTypeName",
                        "src": "958:7:3",
                        "typeDescriptions": {
                          "typeIdentifier": "t_uint256",
                          "typeString": "uint256"
                        }
                      },
                      "visibility": "internal"
                    }
                  ],
                  "id": 764,
                  "initialValue": {
                    "arguments": [
                      {
                        "id": 760,
                        "name": "account",
                        "nodeType": "Identifier",
                        "overloadedDeclarations": [],
                        "referencedDeclaration": 752,
                        "src": "995:7:3",
                        "typeDescriptions": {
                          "typeIdentifier": "t_address",
                          "typeString": "address"
                        }
                      },
                      {
                        "arguments": [],
                        "expression": {
                          "argumentTypes": [],
                          "id": 761,
                          "name": "_msgSender",
                          "nodeType": "Identifier",
                          "overloadedDeclarations": [],
                          "referencedDeclaration": 1347,
                          "src": "1004:10:3",
                          "typeDescriptions": {
                            "typeIdentifier": "t_function_internal_view$__$returns$_t_address_$",
                            "typeString": "function () view returns (address)"
                          }
                        },
                        "id": 762,
                        "isConstant": false,
                        "isLValue": false,
                        "isPure": false,
                        "kind": "functionCall",
                        "lValueRequested": false,
                        "names": [],
                        "nodeType": "FunctionCall",
                        "src": "1004:12:3",
                        "tryCall": false,
                        "typeDescriptions": {
                          "typeIdentifier": "t_address",
                          "typeString": "address"
                        }
                      }
                    ],
                    "expression": {
                      "argumentTypes": [
                        {
                          "typeIdentifier": "t_address",
                          "typeString": "address"
                        },
                        {
                          "typeIdentifier": "t_address",
                          "typeString": "address"
                        }
                      ],
                      "id": 759,
                      "name": "allowance",
                      "nodeType": "Identifier",
                      "overloadedDeclarations": [],
                      "referencedDeclaration": 241,
                      "src": "985:9:3",
                      "typeDescriptions": {
                        "typeIdentifier": "t_function_internal_view$_t_address_$_t_address_$returns$_t_uint256_$",
                        "typeString": "function (address,address) view returns (uint256)"
                      }
                    },
                    "id": 763,
                    "isConstant": false,
                    "isLValue": false,
                    "isPure": false,
                    "kind": "functionCall",
                    "lValueRequested": false,
                    "names": [],
                    "nodeType": "FunctionCall",
                    "src": "985:32:3",
                    "tryCall": false,
                    "typeDescriptions": {
                      "typeIdentifier": "t_uint256",
                      "typeString": "uint256"
                    }
                  },
                  "nodeType": "VariableDeclarationStatement",
                  "src": "958:59:3"
                },
                {
                  "expression": {
                    "arguments": [
                      {
                        "commonType": {
                          "typeIdentifier": "t_uint256",
                          "typeString": "uint256"
                        },
                        "id": 768,
                        "isConstant": false,
                        "isLValue": false,
                        "isPure": false,
                        "lValueRequested": false,
                        "leftExpression": {
                          "id": 766,
                          "name": "currentAllowance",
                          "nodeType": "Identifier",
                          "overloadedDeclarations": [],
                          "referencedDeclaration": 758,
                          "src": "1035:16:3",
                          "typeDescriptions": {
                            "typeIdentifier": "t_uint256",
                            "typeString": "uint256"
                          }
                        },
                        "nodeType": "BinaryOperation",
                        "operator": ">=",
                        "rightExpression": {
                          "id": 767,
                          "name": "amount",
                          "nodeType": "Identifier",
                          "overloadedDeclarations": [],
                          "referencedDeclaration": 754,
                          "src": "1055:6:3",
                          "typeDescriptions": {
                            "typeIdentifier": "t_uint256",
                            "typeString": "uint256"
                          }
                        },
                        "src": "1035:26:3",
                        "typeDescriptions": {
                          "typeIdentifier": "t_bool",
                          "typeString": "bool"
                        }
                      },
                      {
                        "hexValue": "45524332303a206275726e20616d6f756e74206578636565647320616c6c6f77616e6365",
                        "id": 769,
                        "isConstant": false,
                        "isLValue": false,
                        "isPure": true,
                        "kind": "string",
                        "lValueRequested": false,
                        "nodeType": "Literal",
                        "src": "1063:38:3",
                        "typeDescriptions": {
                          "typeIdentifier": "t_stringliteral_a287c363786607a1457a2d9d12fa61c0073358e02d76b4035fc2c2d86a19c0db",
                          "typeString": "literal_string \"ERC20: burn amount exceeds allowance\""
                        },
                        "value": "ERC20: burn amount exceeds allowance"
                      }
                    ],
                    "expression": {
                      "argumentTypes": [
                        {
                          "typeIdentifier": "t_bool",
                          "typeString": "bool"
                        },
                        {
                          "typeIdentifier": "t_stringliteral_a287c363786607a1457a2d9d12fa61c0073358e02d76b4035fc2c2d86a19c0db",
                          "typeString": "literal_string \"ERC20: burn amount exceeds allowance\""
                        }
                      ],
                      "id": 765,
                      "name": "require",
                      "nodeType": "Identifier",
                      "overloadedDeclarations": [
                        4294967278,
                        4294967278
                      ],
                      "referencedDeclaration": 4294967278,
                      "src": "1027:7:3",
                      "typeDescriptions": {
                        "typeIdentifier": "t_function_require_pure$_t_bool_$_t_string_memory_ptr_$returns$__$",
                        "typeString": "function (bool,string memory) pure"
                      }
                    },
                    "id": 770,
                    "isConstant": false,
                    "isLValue": false,
                    "isPure": false,
                    "kind": "functionCall",
                    "lValueRequested": false,
                    "names": [],
                    "nodeType": "FunctionCall",
                    "src": "1027:75:3",
                    "tryCall": false,
                    "typeDescriptions": {
                      "typeIdentifier": "t_tuple$__$",
                      "typeString": "tuple()"
                    }
                  },
                  "id": 771,
                  "nodeType": "ExpressionStatement",
                  "src": "1027:75:3"
                },
                {
                  "id": 781,
                  "nodeType": "UncheckedBlock",
                  "src": "1112:93:3",
                  "statements": [
                    {
                      "expression": {
                        "arguments": [
                          {
                            "id": 773,
                            "name": "account",
                            "nodeType": "Identifier",
                            "overloadedDeclarations": [],
                            "referencedDeclaration": 752,
                            "src": "1145:7:3",
                            "typeDescriptions": {
                              "typeIdentifier": "t_address",
                              "typeString": "address"
                            }
                          },
                          {
                            "arguments": [],
                            "expression": {
                              "argumentTypes": [],
                              "id": 774,
                              "name": "_msgSender",
                              "nodeType": "Identifier",
                              "overloadedDeclarations": [],
                              "referencedDeclaration": 1347,
                              "src": "1154:10:3",
                              "typeDescriptions": {
                                "typeIdentifier": "t_function_internal_view$__$returns$_t_address_$",
                                "typeString": "function () view returns (address)"
                              }
                            },
                            "id": 775,
                            "isConstant": false,
                            "isLValue": false,
                            "isPure": false,
                            "kind": "functionCall",
                            "lValueRequested": false,
                            "names": [],
                            "nodeType": "FunctionCall",
                            "src": "1154:12:3",
                            "tryCall": false,
                            "typeDescriptions": {
                              "typeIdentifier": "t_address",
                              "typeString": "address"
                            }
                          },
                          {
                            "commonType": {
                              "typeIdentifier": "t_uint256",
                              "typeString": "uint256"
                            },
                            "id": 778,
                            "isConstant": false,
                            "isLValue": false,
                            "isPure": false,
                            "lValueRequested": false,
                            "leftExpression": {
                              "id": 776,
                              "name": "currentAllowance",
                              "nodeType": "Identifier",
                              "overloadedDeclarations": [],
                              "referencedDeclaration": 758,
                              "src": "1168:16:3",
                              "typeDescriptions": {
                                "typeIdentifier": "t_uint256",
                                "typeString": "uint256"
                              }
                            },
                            "nodeType": "BinaryOperation",
                            "operator": "-",
                            "rightExpression": {
                              "id": 777,
                              "name": "amount",
                              "nodeType": "Identifier",
                              "overloadedDeclarations": [],
                              "referencedDeclaration": 754,
                              "src": "1187:6:3",
                              "typeDescriptions": {
                                "typeIdentifier": "t_uint256",
                                "typeString": "uint256"
                              }
                            },
                            "src": "1168:25:3",
                            "typeDescriptions": {
                              "typeIdentifier": "t_uint256",
                              "typeString": "uint256"
                            }
                          }
                        ],
                        "expression": {
                          "argumentTypes": [
                            {
                              "typeIdentifier": "t_address",
                              "typeString": "address"
                            },
                            {
                              "typeIdentifier": "t_address",
                              "typeString": "address"
                            },
                            {
                              "typeIdentifier": "t_uint256",
                              "typeString": "uint256"
                            }
                          ],
                          "id": 772,
                          "name": "_approve",
                          "nodeType": "Identifier",
                          "overloadedDeclarations": [],
                          "referencedDeclaration": 626,
                          "src": "1136:8:3",
                          "typeDescriptions": {
                            "typeIdentifier": "t_function_internal_nonpayable$_t_address_$_t_address_$_t_uint256_$returns$__$",
                            "typeString": "function (address,address,uint256)"
                          }
                        },
                        "id": 779,
                        "isConstant": false,
                        "isLValue": false,
                        "isPure": false,
                        "kind": "functionCall",
                        "lValueRequested": false,
                        "names": [],
                        "nodeType": "FunctionCall",
                        "src": "1136:58:3",
                        "tryCall": false,
                        "typeDescriptions": {
                          "typeIdentifier": "t_tuple$__$",
                          "typeString": "tuple()"
                        }
                      },
                      "id": 780,
                      "nodeType": "ExpressionStatement",
                      "src": "1136:58:3"
                    }
                  ]
                },
                {
                  "expression": {
                    "arguments": [
                      {
                        "id": 783,
                        "name": "account",
                        "nodeType": "Identifier",
                        "overloadedDeclarations": [],
                        "referencedDeclaration": 752,
                        "src": "1220:7:3",
                        "typeDescriptions": {
                          "typeIdentifier": "t_address",
                          "typeString": "address"
                        }
                      },
                      {
                        "id": 784,
                        "name": "amount",
                        "nodeType": "Identifier",
                        "overloadedDeclarations": [],
                        "referencedDeclaration": 754,
                        "src": "1229:6:3",
                        "typeDescriptions": {
                          "typeIdentifier": "t_uint256",
                          "typeString": "uint256"
                        }
                      }
                    ],
                    "expression": {
                      "argumentTypes": [
                        {
                          "typeIdentifier": "t_address",
                          "typeString": "address"
                        },
                        {
                          "typeIdentifier": "t_uint256",
                          "typeString": "uint256"
                        }
                      ],
                      "id": 782,
                      "name": "_burn",
                      "nodeType": "Identifier",
                      "overloadedDeclarations": [],
                      "referencedDeclaration": 581,
                      "src": "1214:5:3",
                      "typeDescriptions": {
                        "typeIdentifier": "t_function_internal_nonpayable$_t_address_$_t_uint256_$returns$__$",
                        "typeString": "function (address,uint256)"
                      }
                    },
                    "id": 785,
                    "isConstant": false,
                    "isLValue": false,
                    "isPure": false,
                    "kind": "functionCall",
                    "lValueRequested": false,
                    "names": [],
                    "nodeType": "FunctionCall",
                    "src": "1214:22:3",
                    "tryCall": false,
                    "typeDescriptions": {
                      "typeIdentifier": "t_tuple$__$",
                      "typeString": "tuple()"
                    }
                  },
                  "id": 786,
                  "nodeType": "ExpressionStatement",
                  "src": "1214:22:3"
                }
              ]
            },
            "documentation": {
              "id": 750,
              "nodeType": "StructuredDocumentation",
              "src": "582:295:3",
              "text": " @dev Destroys `amount` tokens from `account`, deducting from the caller's\n allowance.\n See {ERC20-_burn} and {ERC20-allowance}.\n Requirements:\n - the caller must have allowance for ``accounts``'s tokens of at least\n `amount`."
            },
            "functionSelector": "79cc6790",
            "id": 788,
            "implemented": true,
            "kind": "function",
            "modifiers": [],
            "name": "burnFrom",
            "nameLocation": "891:8:3",
            "nodeType": "FunctionDefinition",
            "parameters": {
              "id": 755,
              "nodeType": "ParameterList",
              "parameters": [
                {
                  "constant": false,
                  "id": 752,
                  "mutability": "mutable",
                  "name": "account",
                  "nameLocation": "908:7:3",
                  "nodeType": "VariableDeclaration",
                  "scope": 788,
                  "src": "900:15:3",
                  "stateVariable": false,
                  "storageLocation": "default",
                  "typeDescriptions": {
                    "typeIdentifier": "t_address",
                    "typeString": "address"
                  },
                  "typeName": {
                    "id": 751,
                    "name": "address",
                    "nodeType": "ElementaryTypeName",
                    "src": "900:7:3",
                    "stateMutability": "nonpayable",
                    "typeDescriptions": {
                      "typeIdentifier": "t_address",
                      "typeString": "address"
                    }
                  },
                  "visibility": "internal"
                },
                {
                  "constant": false,
                  "id": 754,
                  "mutability": "mutable",
                  "name": "amount",
                  "nameLocation": "925:6:3",
                  "nodeType": "VariableDeclaration",
                  "scope": 788,
                  "src": "917:14:3",
                  "stateVariable": false,
                  "storageLocation": "default",
                  "typeDescriptions": {
                    "typeIdentifier": "t_uint256",
                    "typeString": "uint256"
                  },
                  "typeName": {
                    "id": 753,
                    "name": "uint256",
                    "nodeType": "ElementaryTypeName",
                    "src": "917:7:3",
                    "typeDescriptions": {
                      "typeIdentifier": "t_uint256",
                      "typeString": "uint256"
                    }
                  },
                  "visibility": "internal"
                }
              ],
              "src": "899:33:3"
            },
            "returnParameters": {
              "id": 756,
              "nodeType": "ParameterList",
              "parameters": [],
              "src": "948:0:3"
            },
            "scope": 789,
            "src": "882:361:3",
            "stateMutability": "nonpayable",
            "virtual": true,
            "visibility": "public"
          }
        ],
        "scope": 790,
        "src": "328:917:3",
        "usedErrors": []
      }
    ],
    "src": "33:1213:3"
  },
  "compiler": {
    "name": "solc",
    "version": "0.8.10+commit.fc410830.Emscripten.clang"
  },
  "networks": {},
  "schemaVersion": "3.4.3",
  "updatedAt": "2021-11-22T14:21:39.466Z",
  "devdoc": {
    "details": "Extension of {ERC20} that allows token holders to destroy both their own tokens and those that they have an allowance for, in a way that can be recognized off-chain (via event analysis).",
    "kind": "dev",
    "methods": {
      "allowance(address,address)": {
        "details": "See {IERC20-allowance}."
      },
      "approve(address,uint256)": {
        "details": "See {IERC20-approve}. Requirements: - `spender` cannot be the zero address."
      },
      "balanceOf(address)": {
        "details": "See {IERC20-balanceOf}."
      },
      "burn(uint256)": {
        "details": "Destroys `amount` tokens from the caller. See {ERC20-_burn}."
      },
      "burnFrom(address,uint256)": {
        "details": "Destroys `amount` tokens from `account`, deducting from the caller's allowance. See {ERC20-_burn} and {ERC20-allowance}. Requirements: - the caller must have allowance for ``accounts``'s tokens of at least `amount`."
      },
      "decimals()": {
        "details": "Returns the number of decimals used to get its user representation. For example, if `decimals` equals `2`, a balance of `505` tokens should be displayed to a user as `5.05` (`505 / 10 ** 2`). Tokens usually opt for a value of 18, imitating the relationship between Ether and Wei. This is the value {ERC20} uses, unless this function is overridden; NOTE: This information is only used for _display_ purposes: it in no way affects any of the arithmetic of the contract, including {IERC20-balanceOf} and {IERC20-transfer}."
      },
      "decreaseAllowance(address,uint256)": {
        "details": "Atomically decreases the allowance granted to `spender` by the caller. This is an alternative to {approve} that can be used as a mitigation for problems described in {IERC20-approve}. Emits an {Approval} event indicating the updated allowance. Requirements: - `spender` cannot be the zero address. - `spender` must have allowance for the caller of at least `subtractedValue`."
      },
      "increaseAllowance(address,uint256)": {
        "details": "Atomically increases the allowance granted to `spender` by the caller. This is an alternative to {approve} that can be used as a mitigation for problems described in {IERC20-approve}. Emits an {Approval} event indicating the updated allowance. Requirements: - `spender` cannot be the zero address."
      },
      "name()": {
        "details": "Returns the name of the token."
      },
      "symbol()": {
        "details": "Returns the symbol of the token, usually a shorter version of the name."
      },
      "totalSupply()": {
        "details": "See {IERC20-totalSupply}."
      },
      "transfer(address,uint256)": {
        "details": "See {IERC20-transfer}. Requirements: - `recipient` cannot be the zero address. - the caller must have a balance of at least `amount`."
      },
      "transferFrom(address,address,uint256)": {
        "details": "See {IERC20-transferFrom}. Emits an {Approval} event indicating the updated allowance. This is not required by the EIP. See the note at the beginning of {ERC20}. Requirements: - `sender` and `recipient` cannot be the zero address. - `sender` must have a balance of at least `amount`. - the caller must have allowance for ``sender``'s tokens of at least `amount`."
      }
    },
    "version": 1
  },
  "userdoc": {
    "kind": "user",
    "methods": {},
    "version": 1
  }
}